…
``` r
table(epi_sc$uniprotswissprot %in% antigenic$uniprotswissprot)
```

    ## 
    ## FALSE  TRUE 
    ##  1182  1745

``` r
epi_sc %>%
  filter(uniprotswissprot %in% antigenic$uniprotswissprot)
```

    ## # A tibble: 1,745 x 1
    ##    uniprotswissprot
    ##    <chr>           
    ##  1 P30047          
    ##  2 O43278          
    ##  3 O43482          
    ##  4 Q9BXS6          
    ##  5 P35558          
    ##  6 O43663          
    ##  7 Q15004          
    ##  8 P00915          
    ##  9 P00918          
    ## 10 Q9NQW6          
    ## # … with 1,735 more rows
…
